{
    "KPlugin": {
        "Icon": "ark",
        "MimeTypes": [
            "application/octet-stream",
            "inode/directory"
        ],
        "Name": "'Compress' service menu",
        "Name[ar]": "قائمة خدمة 'اضغط'",
        "Name[ast]": "Menú del serviciu «Comprimir»",
        "Name[az]": "'Sıxmaq' xidməti menyusu",
        "Name[bg]": "Меню 'Компресиране'",
        "Name[ca@valencia]": "Menú de servei «Comprimeix»",
        "Name[ca]": "Menú de servei «Comprimeix»",
        "Name[cs]": "Servisní nabídka 'Zkomprimovat'",
        "Name[da]": "\"Kompriḿer\"-servicemenu",
        "Name[de]": "„Komprimieren“ im Servicemenü",
        "Name[el]": "Μενού υπηρεσίας 'Συμπίεσης'",
        "Name[en_GB]": "'Compress' service menu",
        "Name[es]": "Menú de servicio para «Comprimir»",
        "Name[et]": "Pakkimise teenusemenüü",
        "Name[eu]": "'Konprimatu' zerbitzu menua",
        "Name[fi]": "Pakkaa-palveluvalikko",
        "Name[fr]": "Menu de service « compresser »",
        "Name[gl]": "Menú de servizo «Comprimir»",
        "Name[he]": "תפריט שירות \"דחיסה\"",
        "Name[hu]": "„Tömörítés” szolgáltatás menü",
        "Name[ia]": "Menu de servicio de 'Comprimer'",
        "Name[it]": "Menu di servizio «Comprimi»",
        "Name[ja]": "'圧縮'サービスメニュー",
        "Name[ko]": "'압축' 서비스 메뉴",
        "Name[nl]": "Servicemenu 'Comprimeren'",
        "Name[nn]": "«Komprimer»-tenestemeny",
        "Name[pl]": "Menu usługi 'Spakuj'",
        "Name[pt]": "Menu do serviço 'Comprimir'",
        "Name[pt_BR]": "Menu do serviço 'Compactar'",
        "Name[ro]": "Meniu de serviciu „Comprimare”",
        "Name[ru]": "Меню действий «Упаковать»",
        "Name[sk]": "Servisná ponuka 'Zbaliť'",
        "Name[sl]": "Meni storitve stiskanja",
        "Name[sr@ijekavian]": "Сервисни мени компресовања",
        "Name[sr@ijekavianlatin]": "Servisni meni kompresovanja",
        "Name[sr@latin]": "Servisni meni kompresovanja",
        "Name[sr]": "Сервисни мени компресовања",
        "Name[sv]": "'Tjänstmeny 'Komprimera'",
        "Name[tr]": "'Sıkıştır' hizmet menüsü",
        "Name[uk]": "Службове меню «Стиснути»",
        "Name[x-test]": "xx'Compress' service menuxx",
        "Name[zh_CN]": "“压缩”服务菜单",
        "Name[zh_TW]": "「壓縮」服務選單"
    },
    "MimeType": "application/octet-stream;inode/directory;",
    "X-KDE-Require": "Write"
}
